[
  {
    "id": {
      "scope": "nexxtway.react-rainbow",
      "name": "calendar"
    },
    "isSymlink": false,
    "hash": "d37482fb98c2122048e25427bdb362e1c8ef1017"
  },
  {
    "id": {
      "scope": "nexxtway.react-rainbow",
      "name": "types"
    },
    "isSymlink": false,
    "hash": "ee3f66fe586a33cd0beb4d8cc6885829ad555516"
  },
  {
    "id": {
      "scope": "nexxtway.react-rainbow",
      "name": "application"
    },
    "isSymlink": false,
    "hash": "0ca6982f28594ac10b57548d3831c00682e4cd41"
  },
  {
    "id": {
      "scope": "nexxtway.react-rainbow",
      "name": "select"
    },
    "isSymlink": false,
    "hash": "e7327249a3b7caadd31860cfd1519ed2971a13b2"
  },
  {
    "id": {
      "scope": "nexxtway.react-rainbow",
      "name": "render-if"
    },
    "isSymlink": false,
    "hash": "1d556e99c9b51fa5f08388cf23fb5dde59c56890"
  },
  {
    "id": {
      "scope": "nexxtway.react-rainbow",
      "name": "required-asterisk"
    },
    "isSymlink": false,
    "hash": "bc34f2b118162bd9f96592c039053b58cd61387c"
  },
  {
    "id": {
      "scope": "nexxtway.react-rainbow",
      "name": "libs/colors"
    },
    "isSymlink": false,
    "hash": "245208594d84c414475057b6603027f09405a0a5"
  },
  {
    "id": {
      "scope": "nexxtway.react-rainbow",
      "name": "libs/with-redux-form"
    },
    "isSymlink": false,
    "hash": "72fbb9b5461dbb7acaec627c6d520dcdd2f827b3"
  },
  {
    "id": {
      "scope": "nexxtway.react-rainbow",
      "name": "libs/unique-id"
    },
    "isSymlink": false,
    "hash": "2233f90fa704759185eacf14000d98ddf88f06a0"
  },
  {
    "id": {
      "scope": "nexxtway.react-rainbow",
      "name": "libs/font-sizes"
    },
    "isSymlink": false,
    "hash": "41a8a385a08e89ebbef58574c21a04e909b6bd4b"
  },
  {
    "id": {
      "scope": "nexxtway.react-rainbow",
      "name": "libs/margins"
    },
    "isSymlink": false,
    "hash": "fa950f4689e5f7bf14959fe35bc4beacdd34d567"
  },
  {
    "id": {
      "scope": "nexxtway.react-rainbow",
      "name": "libs/border-radius"
    },
    "isSymlink": false,
    "hash": "1b63eed1605c52467c3ef340ff36520c46108473"
  },
  {
    "id": {
      "scope": "nexxtway.react-rainbow",
      "name": "libs/paddings"
    },
    "isSymlink": false,
    "hash": "51a6fbc21d5d4bd01c93e64f2cbc1375a5641df5"
  },
  {
    "id": {
      "scope": "nexxtway.react-rainbow",
      "name": "libs/shadows"
    },
    "isSymlink": false,
    "hash": "f4b85388f02deb6dcdee0a8b072f785a6dfcca68"
  },
  {
    "id": {
      "scope": "nexxtway.react-rainbow",
      "name": "libs/constants"
    },
    "isSymlink": false,
    "hash": "a42004a307b6d110f959d26dd1c9016eef91671f"
  },
  {
    "id": {
      "scope": "nexxtway.react-rainbow",
      "name": "libs/get-locale"
    },
    "isSymlink": false,
    "hash": "0bb4772c68d65001420ffa5c2e26151adc5d47f0"
  },
  {
    "id": {
      "scope": "nexxtway.react-rainbow",
      "name": "libs/get-browser-locale"
    },
    "isSymlink": false,
    "hash": "82c00baec974854d6ed0a77594cba5fdebd19f2e"
  },
  {
    "id": {
      "scope": "nexxtway.react-rainbow",
      "name": "button-icon"
    },
    "isSymlink": false,
    "hash": "7508d58bf5f64802e3e38f97a4b70e12f0706ff8"
  },
  {
    "id": {
      "scope": "nexxtway.react-rainbow",
      "name": "assistive-text"
    },
    "isSymlink": false,
    "hash": "4f030124f20b10a1dadd1198076b54ee66b22faf"
  },
  {
    "id": {
      "scope": "nexxtway.react-rainbow",
      "name": "structural"
    },
    "isSymlink": false,
    "hash": "8a0843dfdc559037cc1866c15f32111cd30c1663"
  }
]
